[
  {
    "gDate": "24.09.23",
    "gWDay": "So",
    "gTime": "15:30",
    "gHomeTeam": "JSG Rosenstein",
    "gGuestTeam": "JSG Brenztal",
    "gHomeGoals": "0",
    "gGuestGoals": "52",
    "gHomeGoals_1": "0",
    "gGuestGoals_1": "26",
    "gHomePoints": "0",
    "gGuestPoints": "2",
    "gComment": " ",
    "gReferee": " ",
    "robotextstate": "unseen",
    "score": "0:52",
    "report": "https://spo.handball4all.de/misc/sboPublicReports.php?sGID=2189371"
  },
  {
    "gDate": "30.09.23",
    "gWDay": "Sa",
    "gTime": "14:45",
    "gHomeTeam": "JSG HDH-Stein",
    "gGuestTeam": "JSG Rosenstein",
    "gHomeGoals": "0",
    "gGuestGoals": "0",
    "gHomeGoals_1": "0",
    "gGuestGoals_1": "0",
    "gHomePoints": "2",
    "gGuestPoints": "0",
    "gComment": "Absage Gast",
    "gReferee": " ",
    "robotextstate": "unseen",
    "score": "0:0",
    "report": "https://spo.handball4all.de/misc/sboPublicReports.php?sGID=0"
  },
  {
    "gDate": "22.10.23",
    "gWDay": "So",
    "gTime": "",
    "gHomeTeam": "SG Hof/Hütt 2",
    "gGuestTeam": "JSG Rosenstein",
    "gHomeGoals": "0",
    "gGuestGoals": "0",
    "gHomeGoals_1": "0",
    "gGuestGoals_1": "0",
    "gHomePoints": "2",
    "gGuestPoints": "0",
    "gComment": "Absage Gast",
    "gReferee": " ",
    "robotextstate": "unseen",
    "score": "0:0",
    "report": "https://spo.handball4all.de/misc/sboPublicReports.php?sGID=0"
  }
]
