[
  {
    "tabScore": 1,
    "tabTeamID": "1189821",
    "tabTeamname": "HSG Bargau/Bettringen 3",
    "liveTeam": true,
    "numPlayedGames": 9,
    "numWonGames": 8,
    "numEqualGames": 0,
    "numLostGames": 1,
    "pointsPerGame10": "",
    "numGoalsDiffperGame": "",
    "numGoalsShotperGame": "",
    "posCriterion": "",
    "goals": "291:201",
    "points": "16:2"
  },
  {
    "tabScore": 2,
    "tabTeamID": "1189816",
    "tabTeamname": "SG Hofen/Hüttlingen 3",
    "liveTeam": true,
    "numPlayedGames": 10,
    "numWonGames": 8,
    "numEqualGames": 0,
    "numLostGames": 2,
    "pointsPerGame10": "",
    "numGoalsDiffperGame": "",
    "numGoalsShotperGame": "",
    "posCriterion": "",
    "goals": "297:257",
    "points": "16:4"
  },
  {
    "tabScore": 3,
    "tabTeamID": "1189811",
    "tabTeamname": "Kuchen-Gingen-Süssen Handball 3",
    "liveTeam": true,
    "numPlayedGames": 10,
    "numWonGames": 5,
    "numEqualGames": 0,
    "numLostGames": 5,
    "pointsPerGame10": "",
    "numGoalsDiffperGame": "",
    "numGoalsShotperGame": "",
    "posCriterion": "",
    "goals": "296:278",
    "points": "10:10"
  },
  {
    "tabScore": 4,
    "tabTeamID": "1189841",
    "tabTeamname": "TSG Schnaitheim 2",
    "liveTeam": true,
    "numPlayedGames": 8,
    "numWonGames": 4,
    "numEqualGames": 1,
    "numLostGames": 3,
    "pointsPerGame10": "",
    "numGoalsDiffperGame": "",
    "numGoalsShotperGame": "",
    "posCriterion": "",
    "goals": "231:212",
    "points": "9:7"
  },
  {
    "tabScore": 5,
    "tabTeamID": "1189826",
    "tabTeamname": "1. Heubacher Handballverein 2",
    "liveTeam": true,
    "numPlayedGames": 9,
    "numWonGames": 4,
    "numEqualGames": 1,
    "numLostGames": 4,
    "pointsPerGame10": "",
    "numGoalsDiffperGame": "",
    "numGoalsShotperGame": "",
    "posCriterion": "",
    "goals": "229:238",
    "points": "9:9"
  },
  {
    "tabScore": 6,
    "tabTeamID": "1189836",
    "tabTeamname": "MSG DJK Göppingen/TV Holzheim 2",
    "liveTeam": true,
    "numPlayedGames": 9,
    "numWonGames": 1,
    "numEqualGames": 1,
    "numLostGames": 7,
    "pointsPerGame10": "",
    "numGoalsDiffperGame": "",
    "numGoalsShotperGame": "",
    "posCriterion": "",
    "goals": "207:253",
    "points": "3:15"
  },
  {
    "tabScore": 7,
    "tabTeamID": "1189831",
    "tabTeamname": "TV Treffelhausen 3",
    "liveTeam": true,
    "numPlayedGames": 9,
    "numWonGames": 0,
    "numEqualGames": 1,
    "numLostGames": 8,
    "pointsPerGame10": "",
    "numGoalsDiffperGame": "",
    "numGoalsShotperGame": "",
    "posCriterion": "",
    "goals": "209:321",
    "points": "1:17"
  },
  {
    "tabScore": 8,
    "tabTeamID": "1189846",
    "tabTeamname": "TV Steinheim/A. 2 *",
    "liveTeam": true,
    "numPlayedGames": 0,
    "numWonGames": 0,
    "numEqualGames": 0,
    "numLostGames": 0,
    "pointsPerGame10": "",
    "numGoalsDiffperGame": "",
    "numGoalsShotperGame": "",
    "posCriterion": "",
    "goals": "0:0",
    "points": "0:0"
  }
]
